…
Building model
Closest allele found HLA-B40:02
No BA_to_HLAp model found, predicting with BA model...
Predicting for 1 peptides
Number of peptides skipped/total due to length 0 / 0
Building model
Closest allele found HLA-B58:01
No BA_to_HLAp model found, predicting with BA model...
Predicting for 1 peptides
Number of peptides skipped/total due to length 0 / 0
Building model
Closest allele found HLA-B15:01
No BA_to_HLAp model found, predicting with BA model...
Using TensorFlow backend.
# A tibble: 5,200 x 4
   tool  haplotype   sequence      ic50
   <chr> <chr>       <chr>        <dbl>
 1 ep    HLA-A*01:01 REQQPQWHC 1541130.
 2 mhcn  HLA-A*01:01 REQQPQWHC    5447.
 3 ep    HLA-A*02:01 REQQPQWHC  824666.
 4 mhcn  HLA-A*02:01 REQQPQWHC    5615.
 5 ep    HLA-A*03:01 REQQPQWHC  285629.
 6 mhcn  HLA-A*03:01 REQQPQWHC    5601.
 7 ep    HLA-A*24:02 REQQPQWHC   31658.
 8 mhcn  HLA-A*24:02 REQQPQWHC    5432.
 9 ep    HLA-A*26:01 REQQPQWHC 5055504.
10 mhcn  HLA-A*26:01 REQQPQWHC   13079.
#  with 5,190 more rows
…
